<?xml version="1.0" encoding="UTF-8" standalone="no"?>
<!DOCTYPE svg PUBLIC "-//W3C//DTD SVG 1.1//EN"
 "http://www.w3.org/Graphics/SVG/1.1/DTD/svg11.dtd">
<!-- Generated by graphviz version 9.0.0 (20231125.0833)
 -->
<!-- Title: snakemake_dag Pages: 1 -->
<svg width="606pt" height="260pt"
 viewBox="0.00 0.00 606.38 260.00" xmlns="http://www.w3.org/2000/svg" xmlns:xlink="http://www.w3.org/1999/xlink">
<g id="graph0" class="graph" transform="scale(1 1) rotate(0) translate(4 256)">
<title>snakemake_dag</title>
<polygon fill="white" stroke="none" points="-4,4 -4,-256 602.38,-256 602.38,4 -4,4"/>
<!-- 0 -->
<g id="node1" class="node">
<title>0</title>
<path fill="none" stroke="#59d856" stroke-width="2" stroke-dasharray="5,2" d="M320.75,-36C320.75,-36 290.75,-36 290.75,-36 284.75,-36 278.75,-30 278.75,-24 278.75,-24 278.75,-12 278.75,-12 278.75,-6 284.75,0 290.75,0 290.75,0 320.75,0 320.75,0 326.75,0 332.75,-6 332.75,-12 332.75,-12 332.75,-24 332.75,-24 332.75,-30 326.75,-36 320.75,-36"/>
<text text-anchor="middle" x="305.75" y="-14.88" font-family="sans" font-size="10.00">all</text>
</g>
<!-- 1 -->
<g id="node2" class="node">
<title>1</title>
<path fill="none" stroke="#d85656" stroke-width="2" stroke-dasharray="5,2" d="M137.5,-108C137.5,-108 12,-108 12,-108 6,-108 0,-102 0,-96 0,-96 0,-84 0,-84 0,-78 6,-72 12,-72 12,-72 137.5,-72 137.5,-72 143.5,-72 149.5,-78 149.5,-84 149.5,-84 149.5,-96 149.5,-96 149.5,-102 143.5,-108 137.5,-108"/>
<text text-anchor="middle" x="74.75" y="-93.25" font-family="sans" font-size="10.00">train_model</text>
<text text-anchor="middle" x="74.75" y="-80.5" font-family="sans" font-size="10.00">train_method: DecisionTree</text>
</g>
<!-- 1&#45;&gt;0 -->
<g id="edge1" class="edge">
<title>1&#45;&gt;0</title>
<path fill="none" stroke="grey" stroke-width="2" d="M133.94,-71.06C175.31,-58.53 229.45,-42.12 265.8,-31.11"/>
<polygon fill="grey" stroke="grey" stroke-width="2" points="266.41,-34.58 274.97,-28.33 264.38,-27.88 266.41,-34.58"/>
</g>
<!-- 2 -->
<g id="node3" class="node">
<title>2</title>
<path fill="none" stroke="#56d8d8" stroke-width="2" stroke-dasharray="5,2" d="M283.25,-180C283.25,-180 120.25,-180 120.25,-180 114.25,-180 108.25,-174 108.25,-168 108.25,-168 108.25,-156 108.25,-156 108.25,-150 114.25,-144 120.25,-144 120.25,-144 283.25,-144 283.25,-144 289.25,-144 295.25,-150 295.25,-156 295.25,-156 295.25,-168 295.25,-168 295.25,-174 289.25,-180 283.25,-180"/>
<text text-anchor="middle" x="201.75" y="-165.25" font-family="sans" font-size="10.00">preprocess</text>
<text text-anchor="middle" x="201.75" y="-152.5" font-family="sans" font-size="10.00">preprocess_method: MinMaxScaler</text>
</g>
<!-- 2&#45;&gt;1 -->
<g id="edge5" class="edge">
<title>2&#45;&gt;1</title>
<path fill="none" stroke="grey" stroke-width="2" d="M169.37,-143.15C153.85,-134.6 135.03,-124.22 118.27,-114.99"/>
<polygon fill="grey" stroke="grey" stroke-width="2" points="120.17,-112.04 109.72,-110.27 116.79,-118.17 120.17,-112.04"/>
</g>
<!-- 6 -->
<g id="node7" class="node">
<title>6</title>
<path fill="none" stroke="#d85656" stroke-width="2" stroke-dasharray="5,2" d="M278.38,-108C278.38,-108 179.12,-108 179.12,-108 173.12,-108 167.12,-102 167.12,-96 167.12,-96 167.12,-84 167.12,-84 167.12,-78 173.12,-72 179.12,-72 179.12,-72 278.38,-72 278.38,-72 284.38,-72 290.38,-78 290.38,-84 290.38,-84 290.38,-96 290.38,-96 290.38,-102 284.38,-108 278.38,-108"/>
<text text-anchor="middle" x="228.75" y="-93.25" font-family="sans" font-size="10.00">train_model</text>
<text text-anchor="middle" x="228.75" y="-80.5" font-family="sans" font-size="10.00">train_method: LogReg</text>
</g>
<!-- 2&#45;&gt;6 -->
<g id="edge9" class="edge">
<title>2&#45;&gt;6</title>
<path fill="none" stroke="grey" stroke-width="2" d="M208.56,-143.34C211.2,-136.51 214.29,-128.5 217.24,-120.83"/>
<polygon fill="grey" stroke="grey" stroke-width="2" points="220.42,-122.32 220.76,-111.73 213.89,-119.8 220.42,-122.32"/>
</g>
<!-- 3 -->
<g id="node4" class="node">
<title>3</title>
<path fill="none" stroke="#d6d856" stroke-width="2" stroke-dasharray="5,2" d="M336,-252C336,-252 273.5,-252 273.5,-252 267.5,-252 261.5,-246 261.5,-240 261.5,-240 261.5,-228 261.5,-228 261.5,-222 267.5,-216 273.5,-216 273.5,-216 336,-216 336,-216 342,-216 348,-222 348,-228 348,-228 348,-240 348,-240 348,-246 342,-252 336,-252"/>
<text text-anchor="middle" x="304.75" y="-230.88" font-family="sans" font-size="10.00">generate_data</text>
</g>
<!-- 3&#45;&gt;2 -->
<g id="edge6" class="edge">
<title>3&#45;&gt;2</title>
<path fill="none" stroke="grey" stroke-width="2" d="M278.49,-215.15C266.39,-206.93 251.81,-197.02 238.62,-188.06"/>
<polygon fill="grey" stroke="grey" stroke-width="2" points="240.7,-185.24 230.46,-182.51 236.77,-191.03 240.7,-185.24"/>
</g>
<!-- 5 -->
<g id="node6" class="node">
<title>5</title>
<path fill="none" stroke="#56d8d8" stroke-width="2" stroke-dasharray="5,2" d="M492.5,-180C492.5,-180 325,-180 325,-180 319,-180 313,-174 313,-168 313,-168 313,-156 313,-156 313,-150 319,-144 325,-144 325,-144 492.5,-144 492.5,-144 498.5,-144 504.5,-150 504.5,-156 504.5,-156 504.5,-168 504.5,-168 504.5,-174 498.5,-180 492.5,-180"/>
<text text-anchor="middle" x="408.75" y="-165.25" font-family="sans" font-size="10.00">preprocess</text>
<text text-anchor="middle" x="408.75" y="-152.5" font-family="sans" font-size="10.00">preprocess_method: StandardScaler</text>
</g>
<!-- 3&#45;&gt;5 -->
<g id="edge8" class="edge">
<title>3&#45;&gt;5</title>
<path fill="none" stroke="grey" stroke-width="2" d="M331.26,-215.15C343.49,-206.93 358.21,-197.02 371.52,-188.06"/>
<polygon fill="grey" stroke="grey" stroke-width="2" points="373.43,-190.99 379.77,-182.5 369.52,-185.18 373.43,-190.99"/>
</g>
<!-- 4 -->
<g id="node5" class="node">
<title>4</title>
<path fill="none" stroke="#d85656" stroke-width="2" stroke-dasharray="5,2" d="M445.5,-108C445.5,-108 320,-108 320,-108 314,-108 308,-102 308,-96 308,-96 308,-84 308,-84 308,-78 314,-72 320,-72 320,-72 445.5,-72 445.5,-72 451.5,-72 457.5,-78 457.5,-84 457.5,-84 457.5,-96 457.5,-96 457.5,-102 451.5,-108 445.5,-108"/>
<text text-anchor="middle" x="382.75" y="-93.25" font-family="sans" font-size="10.00">train_model</text>
<text text-anchor="middle" x="382.75" y="-80.5" font-family="sans" font-size="10.00">train_method: DecisionTree</text>
</g>
<!-- 4&#45;&gt;0 -->
<g id="edge2" class="edge">
<title>4&#45;&gt;0</title>
<path fill="none" stroke="grey" stroke-width="2" d="M363.32,-71.34C354.72,-63.52 344.43,-54.16 334.94,-45.53"/>
<polygon fill="grey" stroke="grey" stroke-width="2" points="337.44,-43.07 327.68,-38.94 332.73,-48.25 337.44,-43.07"/>
</g>
<!-- 5&#45;&gt;4 -->
<g id="edge7" class="edge">
<title>5&#45;&gt;4</title>
<path fill="none" stroke="grey" stroke-width="2" d="M402.19,-143.34C399.68,-136.59 396.75,-128.69 393.93,-121.11"/>
<polygon fill="grey" stroke="grey" stroke-width="2" points="397.22,-119.9 390.45,-111.74 390.65,-122.33 397.22,-119.9"/>
</g>
<!-- 7 -->
<g id="node8" class="node">
<title>7</title>
<path fill="none" stroke="#d85656" stroke-width="2" stroke-dasharray="5,2" d="M586.38,-108C586.38,-108 487.12,-108 487.12,-108 481.12,-108 475.12,-102 475.12,-96 475.12,-96 475.12,-84 475.12,-84 475.12,-78 481.12,-72 487.12,-72 487.12,-72 586.38,-72 586.38,-72 592.38,-72 598.38,-78 598.38,-84 598.38,-84 598.38,-96 598.38,-96 598.38,-102 592.38,-108 586.38,-108"/>
<text text-anchor="middle" x="536.75" y="-93.25" font-family="sans" font-size="10.00">train_model</text>
<text text-anchor="middle" x="536.75" y="-80.5" font-family="sans" font-size="10.00">train_method: LogReg</text>
</g>
<!-- 5&#45;&gt;7 -->
<g id="edge10" class="edge">
<title>5&#45;&gt;7</title>
<path fill="none" stroke="grey" stroke-width="2" d="M441.38,-143.15C457.03,-134.6 476,-124.22 492.89,-114.99"/>
<polygon fill="grey" stroke="grey" stroke-width="2" points="494.43,-118.13 501.52,-110.26 491.07,-111.99 494.43,-118.13"/>
</g>
<!-- 6&#45;&gt;0 -->
<g id="edge3" class="edge">
<title>6&#45;&gt;0</title>
<path fill="none" stroke="grey" stroke-width="2" d="M248.18,-71.34C256.78,-63.52 267.07,-54.16 276.56,-45.53"/>
<polygon fill="grey" stroke="grey" stroke-width="2" points="278.77,-48.25 283.82,-38.94 274.06,-43.07 278.77,-48.25"/>
</g>
<!-- 7&#45;&gt;0 -->
<g id="edge4" class="edge">
<title>7&#45;&gt;0</title>
<path fill="none" stroke="grey" stroke-width="2" d="M477.56,-71.06C436.19,-58.53 382.05,-42.12 345.7,-31.11"/>
<polygon fill="grey" stroke="grey" stroke-width="2" points="347.12,-27.88 336.53,-28.33 345.09,-34.58 347.12,-27.88"/>
</g>
</g>
</svg>
